APOGEN: automatic page object generator for web testing,09 August 2016,https://doi.org/10.1007/s11219-016-9331-9
An approach for dynamic web application testing using MBT,15 June 2017,https://doi.org/10.1007/s13198-017-0646-0
Model-based testing leveraged for automated web tests,27 November 2021,https://doi.org/10.1007/s11219-021-09575-w
Model checking-based testing of Web applications,September 2007,https://doi.org/10.1007/s11859-007-0005-0
